Stata and R PIP clients
…
Installation

# install.packages("devtools")
devtools::install_github("worldbank/pipr")

Webpage

https://worldbank.github.io/pipr/

Country-level estimates

pipr::get_stats() |> 
  select(c(country_code, year, poverty_line, headcount))

# A tibble: 2,320 × 4
   country_code  year poverty_line   headcount
   <chr>        <dbl>        <dbl>       <dbl>
 1 AGO           2000         2.15 0.2140885  
 2 AGO           2008         2.15 0.1463249  
 3 AGO           2018         2.15 0.3112201  
 4 ALB           1996         2.15 0.005348460
 5 ALB           2002         2.15 0.01092647 
 6 ALB           2005         2.15 0.005910857
 7 ALB           2008         2.15 0.001999251
 8 ALB           2012         2.15 0.006206909
 9 ALB           2014         2.15 0.01023101 
10 ALB           2015         2.15 0.001206211
# ℹ 2,310 more rows
…
Country-level estimates

pipr::get_stats(country = c("COL", "MAR")) |> 
  arrange(year) |> 
  select(c(country_code, year, poverty_line, headcount))

# A tibble: 33 × 4
   country_code  year poverty_line  headcount
   <chr>        <dbl>        <dbl>      <dbl>
 1 COL           1980         2.15 0.2075780 
 2 MAR           1984         2.15 0.1319537 
 3 COL           1988         2.15 0.1524133 
 4 COL           1989         2.15 0.1416732 
 5 MAR           1990         2.15 0.04728802
 6 COL           1991         2.15 0.1341064 
 7 COL           1992         2.15 0.09557514
 8 COL           1996         2.15 0.1757369 
 9 MAR           1998         2.15 0.08375334
10 COL           1999         2.15 0.2135428 
# ℹ 23 more rows
…
# A tibble: 3 × 4
  country_code  year poverty_line headcount
  <chr>        <dbl>        <dbl>     <dbl>
1 HTI           2001         2.15 0.6783363
2 HTI           2012         2.15 0.2919219
3 HTI           2012         2.15 0.5787614

Interporlated and Extrapolated values

pipr::get_stats(country = "HTI", fill_gaps = TRUE)   |> 
  select(c(country_code, year, poverty_line, headcount))

# A tibble: 41 × 4
   country_code  year poverty_line headcount
   <chr>        <dbl>        <dbl>     <dbl>
 1 HTI           1981         2.15 0.5127917
 2 HTI           1982         2.15 0.5320211
 3 HTI           1983         2.15 0.5377601
 4 HTI           1984         2.15 0.5445521
 5 HTI           1985         2.15 0.5504935
 6 HTI           1986         2.15 0.5627245
 7 HTI           1987         2.15 0.5717675
 8 HTI           1988         2.15 0.7630265
 9 HTI           1989         2.15 0.7783534
10 HTI           1990         2.15 0.7747321
# ℹ 31 more rows

Poverty line

pipr::get_stats(country = "COL", povline = 3)  |> 
  select(c(country_code, year, poverty_line, headcount))

# A tibble: 27 × 4
   country_code  year poverty_line headcount
   <chr>        <dbl>        <dbl>     <dbl>
 1 COL           1980            3 0.2994786
 2 COL           1988            3 0.2344281
 3 COL           1989            3 0.2310108
 4 COL           1991            3 0.2139244
 5 COL           1992            3 0.1753281
 6 COL           1996            3 0.2701443
 7 COL           1999            3 0.3089631
 8 COL           2000            3 0.2578116
 9 COL           2001            3 0.3186980
10 COL           2002            3 0.2312075
# ℹ 17 more rows
…
# A tibble: 4 × 4
  country_code  year poverty_line  headcount
  <chr>        <dbl>        <dbl>      <dbl>
1 COL           2012            2 0.05875268
2 COL           2012            4 0.1939661 
3 COL           2012            6 0.3436242 
4 COL           2012           10 0.5632525 

Global estimates

pipr::get_wb()  |> 
  arrange(year) |> 
  select(c(region_code, year, poverty_line, headcount))

# A tibble: 347 × 4
   region_code  year poverty_line   headcount
   <chr>       <dbl>        <dbl>       <dbl>
 1 OHI          1981          1.9 0.005183592
 2 LAC          1981          1.9 0.1262799  
 3 SAS          1981          1.9 0.4871674  
 4 EAP          1981          1.9 0.7870897  
 5 WLD          1981          1.9 0.3933288  
 6 OHI          1982          1.9 0.005643049
 7 LAC          1982          1.9 0.1316380  
 8 SAS          1982          1.9 0.4828071  
 9 EAP          1982          1.9 0.7630886  
10 WLD          1982          1.9 0.3875048  
# ℹ 337 more rows
…
